{
  "$id": "https://schema.osdu.opengroup.org/json/abstract/AbstractFacilityState.1.0.0.json",
  "$schema": "http://json-schema.org/draft-07/schema#",
  "title": "AbstractFacilityState",
  "description": "The life cycle status of a facility at some point in time.",
  "type": "object",
  "properties": {
    "EffectiveDateTime": {
      "description": "The date and time at which the facility state becomes effective.",
      "type": "string",
      "format": "date-time"
    },
    "TerminationDateTime": {
      "description": "The date and time at which the facility state is no longer in effect.",
      "type": "string",
      "format": "date-time"
    },
    "FacilityStateTypeID": {
      "description": "The facility life cycle state from planning to abandonment.",
      "type": "string",
      "pattern": "^srn:<namespace>:reference-data\\/FacilityStateType:[^:]+:[0-9]*$"
    }
  }
}